import json

# Load JSON from the file located in /tmp
with open('/tmp/result.json', 'r') as file:
    data = json.load(file)

# Start of HTML content
html_content = '''
<!DOCTYPE html>
<html>
<head>
<title>Backup Report</title>
<style>
table {
  border-collapse: collapse;
  width: 100%;
}
th, td {
  padding: 8px;
  text-align: left;
  border-bottom: 1px solid #ddd;
}
tr:nth-child(even) {
  background-color: #f2f2f2;
}
th {
  background-color: #4CAF50;
  color: white;
}
</style>
</head>
<body>
<h1>Backup Report</h1>
<table>
   <thead>
    <tr>
      <th>Client ID</th>
      <th>Client Name</th>
      <th>Instance Name</th>
      <th>Job ID</th>
      <th>Job Type</th>
      <th>Job Status</th>
      <th>Subclient ID</th>
      <th>Subclient Name</th>
      <th>Reason</th>
      <th>Reason Error Code</th>
      <th>Ticket ID</th>
    </tr>
  </thead>
  <tbody>
'''

# Append rows to the HTML content for each entry
for result in data["create_incident_result"]["results"]:
    html_content += f'''
    <tr>
      <td>{result["item"]["clientId"]}</td>
      <td>{result["item"]["clientName"]}</td>
      <td>{result["item"]["instanceName"]}</td>
      <td>{result["item"]["jobId"]}</td>
      <td>{result["item"]["jobType"]}</td>
      <td>{result["item"]["jobStatus"]}</td>
      <td>{result["item"]["subClientId"]}</td>
      <td>{result["item"]["subClientName"]}</td>
      <td>{result["item"]["pendingReason"]}</td>
      <td>{result["item"]["pendingReasonErrorCode"]}</td>
      <td>{result["json"]["entity_result_list"][0]["entity"]["properties"]["Id"]}</td>
    </tr>
    '''

# Close the HTML tags
html_content += '''
  </tbody>
</table>
</body>
</html>
'''

# Write the HTML content to a file in /tmp directory
with open('/tmp/reports.html', 'w') as html_file:
    html_file.write(html_content)

print("HTML report has been created at /tmp/reports.html.")
